AY.12	M: I82T; N: D63G,R203M,G215C,D377Y; ORF1ab: A1306S,P2046L,V2930L,T3255I,T3646A,P4715L,G5063S,P5401L,A6319V; ORF3a: S26L; ORF7b: T40I; ORF8: D119I,120_121del; S: T19R,E156G,157_158del,L452R,T478K,D614G,P681R,D950N
AY.16	M: I82T; N: D63G,R203M,D377Y; ORF1ab: P309L,P1640L,A3209V,V3718A,P4715L,G5063S,P5401L,P5971L; ORF3a: S26L; ORF7a: T120I; S: T19R,L452R,T478K,D614G,P681R,D950N
AY.20	M: I82T; N: D63G,R203M,G215C,D377Y; ORF1ab: A599V,A1306S,P2046L,P2287S,V2930L,T3255I,T3646A,P4715L,G5063S,P5401L,A6319V; ORF3a: S26L; ORF7a: V82A,T120I; ORF7b: T40I; ORF8: D119I,120_121del; S: T19R,E156G,157_158del,L452R,T478K,D614G,P681R,D950N,V1104L
AY.23	M: I82T; N: D63G,R203M,G215C,D377Y; ORF1ab: P380L,A1306S,T1496I,P2046L,P2287S,V2930L,T3255I,T3646A,P4715L,G5063S,P5401L,A6319V; ORF3a: S26L; ORF7a: V82A,T120I; ORF7b: T40I; ORF8: D119I,120_121del; S: T19R,E156G,157_158del,L452R,T478K,D614G,P681R,D950N,V1264L
AY.24	M: I82T; N: D63G,R203M,D377Y; ORF1ab: P4715L,G5063S,P5401L; ORF3a: S26L,P104S; ORF7a: V82A,T120I; ORF8: 119_120del; S: T19R,E156G,F157E,157_158del,L452R,T478K,D614G,P681R,D950N
AY.26	M: I82T; N: D63G,R203M,D377Y; ORF1ab: P1640L,A3209V,V3718A,T3750I,P4715L,G5063S,P5401L; ORF3a: S26L; ORF7a: V82A,T120I; ORF8: D119I,120_121del; S: T19R,E156G,157_158del,A222V,L452R,T478K,D614G,P681R,D950N
AY.32	N: D63G,R203M,G215C,D377Y; ORF1ab: A1306S,P2046L,P2287S,T3255I,T3646A,P4715L,G5063S,P5401L,A6319V; ORF3a: S26L; ORF7a: T120I; ORF7b: T40I; ORF8: D119I,120_121del; S: T19R,L452R,T478K,D614G,P681R,D950N
AY.4	M: I82T; N: D63G,R203M,G215C,D377Y; ORF1ab: A1306S,P2046L,P2287S,V2930L,T3255I,T3646A,P4715L,G5063S,P5401L,A6319V; ORF3a: S26L; ORF7a: V82A,T120I; ORF7b: T40I; ORF8: D119I,120_121del; S: T19R,E156G,157_158del,L452R,T478K,D614G,P681R,D950N
AY.5	M: I82T; N: D63G,R203M,G215C,S327L,D377Y; ORF1ab: A1306S,P2046L,P2287S,V2930L,T3255I,T3646A,P4715L,G5063S,P5401L,A6319V; ORF3a: S26L; ORF7a: V82A,T120I; ORF7b: T40I; ORF8: D119I,120_121del; S: T19R,E156G,157_158del,L452R,T478K,D614G,P681R,D950N
AY.7.2	M: I82T; N: D63G,R203M,G215C,D377Y; ORF1ab: A1306S,P2046L,P2287S,V2930L,T3255I,T3646A,P4715L,G5063S,P5401L,A6319V; ORF3a: G18V,S26L; ORF7a: V82A,T120I; ORF7b: T40I; ORF8: 119_120del; S: T19R,E156G,157_158del,F157E,L452R,T478K,D614G,P681R,D950N
AY.9	M: I82T; N: D63G,R203M,D377Y; ORF1ab: P1640L,A3209V,V3718A,T3750I,P4715L,G5063S,P5401L; ORF3a: S26L; ORF7a: V82A,T120I; ORF8: D119I,120_121del; S: T19R,E156G,157_158del,A222V,L452R,T478K,D614G,P681R,D950N
B.1.1.7	N: D3L,R203K,G204R,S235F; ORF1ab: T1001I,A1708D,I2230T,3675_3677del,P4715L; ORF8: Q27*,R52I,Y73C; S: 69_70del,H69S,144del,Y144L,N501Y,A570D,D614G,P681H,T716I,S982A,D1118H
B.1.351	E: P71L; N: T205I; ORF1ab: T265I,K1655N,K3353R,3675_3677del,P4715L; ORF3a: Q57H,S171L; S: D80A,D215G,241_243del,K417N,E484K,N501Y,D614G,A701V
B.1.427	N: T205I; ORF1ab: T265I,S3158T,P4715L,P5377L,D5584Y; ORF3a: Q57H; S: S13I,W152C,L452R,D614G
B.1.429	N: T205I; ORF1ab: T265I,I4205V,P4715L,D5584Y; ORF3a: Q57H; S: S13I,W152C,L452R,D614G
B.1.525	E: L21F; M: I82T; N: S2Y,3del,D3I,A12G,T205I; ORF1ab: T2007I,3675_3677del,P4715F; ORF6: 2_3del; S: Q52R,A67V,69_70del,H69S,144del,Y144L,E484K,D614G,Q677H,F888L
B.1.617.1	N: R203M,D377Y; ORF1ab: T1567I,T3646A,P4715L,M5753I,K6711R; ORF3a: S26L; ORF7a: V82A; S: L452R,E484Q,D614G,P681R,Q1071H
B.1.617.2	M: I82T; N: D63G,R203M,D377Y; ORF1ab: P4715L,G5063S,P5401L; ORF3a: S26L; ORF7a: V82A,T120I; ORF8: D119I,120_121del; S: T19R,G142D,E156G,157_158del,L452R,T478K,D614G,P681R,D950N
P.1	N: P80R,R203K,G204R; ORF1ab: S1188L,K1795Q,3675_3677del,P4715L,E5665D; ORF3a: S253P; ORF8: E92K; S: L18F,T20N,P26S,D138Y,R190S,K417T,E484K,N501Y,D614G,H655Y,T1027I,V1176F
